x,y,offering_id,name
123,6,246937,Days Inn Austin South
41,6,123896,Hampton Inn Indianapolis Dwtn Across from Circle Centre
178,23,95288,Homewood Suites by Hilton Indianapolis Northwest
53,10,1546086,Baymont Inn & Suites Indianapolis South
28,9,223728,Wingate By Wyndham Indianapolis Airport-Rockville Rd.
190,61,95253,La Quinta Inn & Suites Indianapolis South
28,8,223755,Fairfield Inn & Suites Indianapolis Downtown
49,18,95284,Hilton Indianapolis
14,5,223509,Hampton Inn & Suites Indianapolis-Airport
141,55,217654,Courtyard by Marriott Indianapolis at the Capitol
45,20,217653,Drury Inn Indianapolis
28,5,612540,Homewood Suites by Hilton Indianapolis-Downtown
9,4,95241,Jameson Inn of Indy Castleton
59,34,122230,Hilton Garden Inn Indianapolis South/Greenwood
7,4,101657,Hyatt Place Indianapolis Airport
11,7,223749,Wingate by Wyndham Indianapolis Northwest
27,8,223753,Embassy Suites Indianapolis North
32,21,101661,La Quinta Inn Indianapolis East
18,9,223730,Omni Severin Hotel
66,47,95285,SpringHill Suites Indianapolis Downtown
9,3,101647,Courtyard Indianapolis Downtown
1,0,1628583,Residence Inn Indianapolis Fishers
1,3,101668,TownePlace Suites Indianapolis Keystone
4,6,223732,Residence Inn Indianapolis Downtown on the Canal
0,1,1218847,Marriott Indianapolis East
4,4,223764,Hampton Inn Indianapolis Northwest - Park 100
2,6,240079,Drury Inn & Suites Indianapolis Northeast
3,3,101660,Comfort Suites Indianapolis
9,5,240082,JW Marriott Indianapolis
2,2,1225684,The Blackwell
3,1,1206195,The Westin Detroit Metropolitan Airport
5,22,90214,Hilton Garden Inn Charlotte/Ayrsley
7,27,101649,Hilton Garden Inn Charlotte Uptown
17,42,95264,Charlotte Marriott Executive Park
0,2,1804281,Sleep Inn University Place
11,20,101665,Holiday Inn Charlotte - Center City
2,1,223734,Oakwood At Riverfront
8,16,223767,Detroit Knights Inn
4,12,95236,Viking Motel
2,10,95240,A Victory Inn & Suites
3,4,222972,Stay Inn & Suites
24,37,101757,Cranbrook Inn
3,3,101670,A Victory Inn-East Dearborn
14,23,223762,Milner Hotel
16,4,223772,Corktown Inn
1,5,240078,The Leland
15,10,95275,Shorecrest Motor Inn
0,3,101635,Super 8 Motel Taylor
37,59,95242,Detroit Regency Hotel
1,1,95271,St. Regis
1,1,223763,Hawthorn Suites By Wyndham Dearborn
65,52,75212,Oakwood Windsor At Fairlane Meadows
29,16,101643,Residence Inn Charlotte SouthPark
2,2,3574675,Sleep Inn Billy Graham Parkway
11,11,114725,SpringHill Suites Charlotte University Research Park
19,27,95263,Hawthorn Suites by Wyndham Charlotte - Executive Center
11,24,223766,Extended Stay America - Charlotte - Tyvola Rd. - Executive Park
42,18,223759,Sleep Inn North Lake
252,148,101653,Knights Inn Charlotte
3,3,1191338,"Country Inn & Suites By Carlson, Charlotte - I-85 Airport"
25,11,223737,Four Points by Sheraton Charlotte
12,13,90216,Suburban Extended Stay Hotel of Charlotte - WT Harris
28,42,95235,Red Roof Inn Charlotte UNCC
5,3,281206,Courtyard Charlotte Billy Graham Parkway
20,11,223765,Crowne Plaza Charlotte
8,6,123895,Sonesta ES Suites Charlotte
29,7,101640,Homestead Lodge - Airport
1,0,1643250,Value Lodge
15,8,101639,Extended Stay America - Charlotte - Tyvola Rd.
23,7,223756,Southern Comfort Inn
14,18,123898,Charlotte Inn
18,5,101659,Holiday Inn - Merchandise Mart
20,11,101651,Extended Stay America - Charlotte - Airport
35,16,101641,Baymont Inn and Suites Charlotte-Airport
23,5,101646,BEST WESTERN PLUS Charlotte/Matthews
34,12,101636,InTown Suites Charlotte Northeast
75,32,95261,Knights Inn Charlotte South
48,17,223775,Airport Parkway Inn
27,10,124435,Motel 6 Charlotte Coliseum
108,68,95286,Rodeway Inn
64,18,223760,Americas Best Value Inn & Suites-Charlotte
22,9,95246,Studio 6 Charlotte Airport
23,6,626349,Red Roof Inn Charlotte Airport West
37,15,240076,Motel 6 Charlotte - South
29,16,249788,Rodeway Inn Charlotte \ Downtown
31,13,95230,InTown Suites Charlotte Central
55,23,95252,Super 8 Charlotte Sunset Road
55,14,896855,Arlington Suites
60,19,223742,VanLandingham Estate
143,39,95258,Charlotte Express Inn
43,5,75221,Knights Inn Charlotte
32,7,95250,Brookwood Inn - Charlotte
40,5,75206,Econo Lodge Coliseum Area
80,34,95289,Queen City Inn
32,6,95277,Super 8 Charlotte Amusement Park
76,21,95249,Woodlawn Inn
166,46,122229,Travelodge Hotel and Suites
28,6,1238209,Relax Inn Charlotte
27,9,223726,Ramada Limited Charlotte
193,54,95293,Oakwood Plantation Park
48,15,250903,Oakwood At 1420 Magnolia
37,8,223223,InTown Suites University
64,21,281777,Howard Johnson Express Inn and Suites
72,21,675842,Charlotte Villager Lodge
62,18,95265,Capri Motel
135,38,95247,Budget Inn - Charlotte
15,2,265892,Airport Inn Charlotte
107,27,122237,Golden Green Hotel
24,2,1382787,Americas Best Value Inn & Suites Charlotte
96,42,95269,City Center Inn
110,16,95238,La Casa Inn
47,16,268516,Country Hearth Inn Charlotte
43,14,223771,Budget Inn Charlotte
36,7,223747,Greenleafe Inn
40,9,223739,Ramada Charlotte Northeast
67,9,518306,Bradley Motel
120,17,223748,Ramada Airport South & Conference Center
58,7,223724,Royal Inn Charlotte Airport Hotel
100,11,1479195,Econo Lodge Inn & Suites
24,1,3400639,Extended Stay America - Charlotte - University Place
41,4,223735,Days Inn Woodlawn Rd. Near Carowinds
52,6,2154314,Days Inn Airport North Charlotte
127,7,1200977,Holiday Inn Airport Charlotte Hotel
129,9,258165,The Blake Hotel
69,5,278081,Microtel Inn by Wyndham Charlotte/University Place
90,12,223750,Quality Inn - Charlotte
59,7,2151296,Sun Suites of Charlotte
92,16,819653,Budget Inn
103,20,1157336,Comfort Suites Airport
76,0,1804801,Days Inn Charlotte / Sunset Road
115,12,878115,Fairfield Inn Charlotte/Northlake
57,5,1588429,Super 8 Charlotte University
124,5,1415082,Adams Mark Hotel
