x,y,offering_id,name
774,89,1510002,Liberty Hotel
153,36,102472,Royal Pagoda Motel
294,65,122332,BEST WESTERN PLUS Dragon Gate Inn
444,127,96737,L.A. Sky Boutique Hotel
519,104,102480,Oxford Palace Hotel
294,75,96705,Super 8 North Hollywood
31,5,249126,Radisson Midtown at USC
135,20,112145,Radisson Hotel Chatsworth
179,86,96712,The Dixie Hollywood
515,78,102463,Americas Best Value Inn - Los Angeles / Hollywood
118,29,102550,Hollywood Historic Hotel
714,159,112132,Quality Inn Hollywood
364,95,224279,Knights Inn Woodland Hills
445,62,220059,Hollywood Downtowner Inn
274,34,112136,Super 8 Los Angeles / Alhambra
369,63,1479774,Super 8 Canoga Park
228,46,102510,La Mirage Inn
125,75,220057,Americas Best Value Inn & Suites Granada Hills
86,73,102492,Extended Stay America - Los Angeles - Northridge
1,10,122337,Extended Stay America - Los Angeles - Woodland Hills
2,12,122324,Comfort Inn and Suites near Universal Studios
0,4,122328,Motel 6 Los Angeles - Hollywood
59,85,1778574,Horizon Inn Motel
17,48,96684,Comfort Inn Near Warner Center
30,40,1861737,Comfort Inn Near Universal Studios Hollywood
7,12,122335,Saharan Motor Hotel
1,0,1097234,Encore Motel
29,25,102509,Rose Bowl Motel
14,19,1164882,Holiday Inn Express Van Nuys
115,95,74370,Super 8 Los Angeles Airport/LAX
139,161,96715,Staybridge Suites Chatsworth
19,22,102495,Azul Inn
52,41,96730,Metro Plaza Hotel
18,17,102539,Sportsmen's Lodge Hotel
276,153,142181,The LA Hotel Downtown
36,26,102503,Holiday Inn Express - Los Angeles Downtown West
92,69,115448,Golden West Manor Motel
57,26,102542,Vagabond Inn San Pedro
106,49,271793,Ramada Limited Canoga Park/Warner Center
178,102,220058,Holiday Inn Los Angeles International Airport
107,36,102537,Warner Center Marriott Woodland Hills
156,74,96721,BEST WESTERN Hollywood Plaza Inn
247,95,102519,Travelodge Hollywood-Vermont/Sunset
191,70,102707,Hollywood City Inn
141,46,96726,Vagabond Inn Los Angeles-USC
115,45,1176615,Comfort Inn Near Hollywood Walk of Fame
205,107,112137,Hollywood Hotel
202,70,115444,O Hotel
413,119,96688,Beverly Laurel Motor Hotel
186,72,1022889,BEST WESTERN Canoga Park Motor Inn
176,52,96698,BEST WESTERN Burbank Airport Inn
316,127,125307,Studio City Court Yard Hotel
426,144,112129,Rodeway Inn Convention Center
686,247,102710,Travelodge Hotel at LAX
386,168,217682,Cadillac Hotel
68,24,225275,Villa Brasil Motel
372,120,123541,The Standard Downtown LA
197,83,96686,Crowne Plaza Los Angeles International Airport Hotel
222,51,247008,Clarion Inn
455,106,96711,San Pedro Inn and Suites Hotel
668,176,102466,Wilshire Motel
238,136,122325,UCLA Guest House
444,71,112134,Miyako Hotel Los Angeles
113,13,483277,BEST WESTERN PLUS Royal Palace Inn & Suites
444,69,112124,Park Plaza Lodge Hotel
268,32,74363,BEST WESTERN PLUS Carriage Inn
910,152,122343,La Quinta Inn & Suites LAX
53,8,662409,Hollywood Roosevelt Hotel - A Thompson Hotel
230,35,499019,The BLVD Hotel & Spa
305,50,1091941,Hilgard House Hotel
246,32,224280,The Westin Los Angeles Airport
600,72,122315,Hilton Los Angeles Airport
229,24,226730,Crowne Plaza Los Angeles Harbor Hotel
25,2,3186945,Custom Hotel
281,32,96735,Holiday Inn Express Los Angeles-LAX Airport
96,4,3226761,The Westin Bonaventure Hotel & Suites
