x,y,offering_id,name
505,71,90003,Heart of Texas Motel
3,13,530320,Rodeway Inn University / Downtown
0,1,95305,Western Hills Motel
5,13,95312,Econo Lodge Austin
0,1,1647936,Motel 6 Austin Central - South/Univ of Texas
0,1,1901088,American Inn
51,31,89995,Travelodge Austin
16,14,605656,Red Roof Inn Austin North
34,45,89998,La Quinta Inn Austin Highland Mall
17,12,114654,Comfort Suites Austin Airport
2,1,1190550,Quality Inn North Austin
19,15,95308,Candlewood Suites - Austin Arboretum-Northwest
73,42,89999,Comfort Inn
12,5,95300,The Quarters at Hardin House
34,14,2156247,Jameson Inn Indianapolis-Carmel
87,23,94554,Hampton Inn Indianapolis - NE / Castleton
133,25,674740,Wyndham Indianapolis West
332,88,224064,Bridgemont Residence Inn
130,30,95294,Super 8 Indianapolis/Emerson
130,47,256897,Value Place Lawrence
120,20,114661,Quality Inn & Suites Airport
122,23,288605,Red Roof Inn Indianapolis - South
164,39,1230421,Caribbean Cove Hotel & Conference Center
304,45,1236680,Country Hearth Inn Indianapolis
219,30,674735,Knights Inn South / Airport Indianapolis
293,46,782678,Dollar Inn Airport
275,35,95302,Comfort Inn South
173,17,242702,InTown Suites Indianapolis North
