x,y,offering_id,name
96,21,223888,Kings Inn of Indianapolis
10,2,109119,Always Inn
7,10,109211,Super 8 Indianapolis College Park
1,1,1222239,Motel 6 Indianapolis South
13,9,109088,InTown Suites Indianapolis East
14,7,109178,Americas Best Value Inn - Indy Northwest
45,20,109138,Americas Best Value Inn-Indy East
33,4,98839,Dollar Inn - Castleton
20,5,224283,Motel 6 Indianapolis - East
2,1,2049085,Quality Inn & Suites
5,2,627514,Travel Inn
28,13,277885,Skyline Motel
12,2,109111,Mayfair Motel
14,7,73551,Ramada I-70 East Indianapolis
10,7,109205,Quality Inn & Suites East
142,58,109130,Best Inn
22,8,109187,Clarion Hotel & Conference Center
2,6,98846,Americas Best Value Inn-Indy South
14,27,253357,Magnuson Hotel Castleton Inn
5,12,225117,American Inn West
2,1,98853,Indianapolis Budget Inn and Suites
1,4,284866,Super 8 Indianapolis South
10,17,109215,Country Inn & Suites Indianapolis NE at I-69
0,1,3400722,Brickyard Crossing Golf Resort and Inn
16,4,109143,InTown Suites Indianapolis Northwest
1,9,98836,The Suites at 14 West
2,6,547965,Days Inn Indianapolis Airport
7,7,109214,Park Terrace Motel
3,3,244413,BEST WESTERN Country Suites
23,16,98847,Country Inn & Suites By Carlson Indianapolis-South
3,3,98854,Clarion Inn & Suites Northwest
0,4,244412,Radisson Hotel Indianapolis Airport
3,6,73543,BEST WESTERN Airport Suites
52,34,73572,Extended Stay Deluxe - Indianapolis - Northwest - I-465
1,4,98850,Indianapolis Days Inn & Suites Castleton
17,9,109201,Days Inn & Suites Indianapolis NW
2,3,273401,Super 8 Motel Indianapolis / NE / Castleton Area
12,9,73560,Residence Inn Indianapolis Airport
33,11,122709,Comfort Inn East Indianapolis
12,4,224284,The Gatehouse Suites Indianapolis
12,5,294848,Ramada Limited Indianapolis West
3,1,226486,Ramada Airport Indianapolis
16,10,225119,Extended Stay America - Indianapolis - North - Carmel
18,10,98841,Extended Stay America - Indianapolis - Northwest - College Park
6,6,109116,Fairfield Inn & Suites Indianapolis Northwest
10,8,109175,Quality Inn Indianapolis
26,7,109093,Extended Stay Deluxe - Indianapolis - Airport - W. Southern Ave.
15,6,570264,Comfort Inn
20,11,109100,Fairfield Inn Indianapolis South
29,10,1027019,University Place Conference Center & Hotel Indianapolis
48,11,109156,Super 8 Indianapolis
15,3,124453,Hampton Inn Indianapolis-East
11,4,1101250,Comfort Inn & Suites West
85,24,268223,Courtyard Indianapolis Northwest
50,7,225116,Candlewood Suites Indianapolis East
30,7,672597,Columbia Club
22,4,320560,Candlewood Suites Indianapolis Airport
18,8,241640,Embassy Suites Indianapolis - Downtown
33,7,109174,TownePlace Suites Indianapolis NW
55,10,109104,Candlewood Suites Indianapolis Dwtn Medical Dist
4,1,225118,The Westin Indianapolis
21,4,676564,Staybridge Suites Indianapolis - Fishers
202,39,98856,Hampton Inn Indianapolis-South
57,10,543350,Courtyard by Marriott Indianapolis Airport
202,53,98849,Candlewood Suites Indianapolis
49,8,223889,Hyatt Place Indianapolis/Keystone
41,6,224286,Red Roof Inn Indianapolis North - College Park
94,16,225120,BEST WESTERN Indianapolis South
53,6,223890,La Quinta Inn Indianapolis North at Pyramids
17,1,2306647,La Quinta Inn & Suites Indianapolis Downtown
26,5,224285,"Fort Harrison State Park Inn, Golf Resort & Conference Center"
47,7,676704,Holiday Inn Express and Suites Indianapolis East
13,2,1515540,Hilton Garden Inn Indianapolis Northwest
40,7,109101,Motel 6 Pyramid's Indianapolis
11,1,2151620,Fairfield Inn & Suites Indianapolis East
26,3,1382903,Courtyard by Marriott Indianapolis Carmel
15,4,109228,Candlewood Suites Indianapolis Northwest
22,2,109173,Extended Stay America-West 86th Street
92,18,189078,Crowne Plaza Indianapolis Airport
68,16,114952,The Marten House Hotel
36,2,109150,Staybridge Suites Indianapolis - City Centre
36,7,574782,La Quinta Inn Indianapolis Airport Executive Drive
66,10,483873,Holiday Inn Express Northwest-Park 100
30,1,1846740,Holiday Inn Express Indianapolis Downtown City Centre
271,32,777199,Courtyard Indianapolis South
29,7,1137002,Hilton Garden Inn Indianapolis Airport
210,17,647565,Hyatt Regency Indianapolis
57,6,1526953,Baymont Inn and Suites Indianapolis
49,5,1852898,Holiday Inn Indianapolis North/Carmel
239,27,249793,Canterbury Hotel
79,4,1465151,Marriott Indianapolis North
40,3,2533205,La Quinta Inn Indianapolis Airport Lynhurst
241,14,1027025,Microtel Inn & Suites by Wyndham Indianapolis Airport
