x,y,offering_id,name
22,2,1866401,Holiday Inn Hotel-Houston Westchase
244,46,99060,Omni Houston Hotel
22,3,1218737,La Quinta Inn & Suites Houston - Normandy
194,28,99081,Crowne Plaza Houston - Brookhollow
58,8,107915,Drury Inn & Suites Houston Near The Galleria
59,10,1966350,The Westin Houston Memorial City
42,9,108038,Hilton University of Houston
182,20,1200103,Hotel Sorella CITYCENTRE
293,43,283873,"Hotel Icon, Autograph Collection"
251,51,98952,Four Seasons Hotel Houston
21,2,107956,Extended Stay America - Houston - Northwest
101,10,1158926,Hilton Garden Inn Houston Energy Corridor
209,23,282699,Hilton Americas - Houston
63,7,239853,BEST WESTERN PLUS Downtown Inn & Suites Houston
91,17,665163,Courtyard by Marriott Houston by the Galleria
93,27,111618,Renaissance Houston Hotel Greenway Plaza
225,89,99114,Westin Galleria Houston Hotel
23,8,107924,Courtyard by Marriott Houston Westchase
51,16,223151,Hampton Inn and Suites Houston Medical Center - Reliant Park
28,8,223137,La Quinta Inn Houston Northwest
238,48,258636,Alden-Houston
103,20,98920,Houston Marriott Westchase
9,2,1236706,Super 8 Houston Hobby Airport South
32,4,108057,Residence Inn Houston Clear Lake
110,29,240436,Carefree Inn Medical Center
17,2,266158,Super 8 Houston/Hobby Airport/I-45
13,0,559491,Holiday Inn Express Houston East
8,0,1630591,Crowne Plaza
48,13,99106,La Quinta Inn Houston Medical / Reliant Center
37,8,242394,Royal Sonesta Hotel Houston
86,35,108148,Holiday Inn Houston Intercontinental Airport
44,7,99067,"Four Points by Sheraton Houston, Memorial City"
15,0,585164,Residence Inn Houston West/Energy Corridor
177,67,98987,Marriott Houston Airport at George Bush Intercontinental
8,0,107863,Extended Stay America - Houston - Westchase - Westheimer
7,0,258634,Scottish Inn & Suites Reliant Park/Six Flags
16,1,108054,TownePlace Suites Houston Clear Lake
6,3,223158,Quality Inn & Suites West Chase
16,3,1773009,Holiday Inn Express Hotel & Suites Houston NW-Beltway 8-West Road
79,29,107834,Hyatt Place Houston/Greenspoint/IAH Airport
60,23,223154,Hampton Inn Houston - Near The Galleria
26,4,223164,Homewood Suites by Hilton Houston - Clear Lake
42,13,108149,Drury Inn & Suites Houston Hobby
19,5,142023,Ramada Houston Intercontinental Airport South
39,20,223148,Baymont Inn & Suites Houston
56,18,99132,Hilton Houston Westchase
17,7,108020,BEST WESTERN Heritage Inn
42,13,108150,Courtyard by Marriott Houston Hobby Airport
19,3,223141,Comfort Suites Westchase
8,4,223160,Days Inn And Suites Houston IAH Airport
14,9,223179,Holiday Inn Express Hotel & Suites Houston Hwy 59S/Hillcroft
120,69,99101,Sheraton North Houston at George Bush Intercontinental
17,1,596014,Staybridge Suites Houston West / Energy Corridor
2,0,815515,Scottish Inns & Suites - Willowbrook
17,6,256700,Sun Suites of Hobby / Clearlake
21,19,256702,Sun Suites Of Westchase
1,0,2712053,Staybridge Suites Houston Iah - Beltway 8
4,2,650546,Symphony Inn & Suites
25,8,99004,Americas Best Value Inn-Texas Medical Center/Reliant Park
30,11,223149,Hampton Inn Houston Hobby Airport
56,25,98989,DoubleTree by Hilton Houston Hobby Airport
20,19,107930,Candlewood Suites Houston by the Galleria
21,19,99041,La Quinta Inn Houston Wilcrest
13,6,1627951,Travelodge Houston
7,2,486939,Hampton Inn & Suites Houston-Westchase
3,1,558146,Star Inn & Suites
10,3,258635,Sun Suites Of Greenspoint
5,2,1636050,Americas Best Value Inn - Medical Center North
3,3,266326,Super 8 Houston/Downtown/I-610
44,19,1155392,Athens Hotel Suites
13,6,107884,Americas Best Value Inn & Suites - Houston/Northwest
32,16,1514581,"Park Inn by Radisson, Houston North"
26,13,98964,Holiday Inn Houston Hobby Airport
9,7,595438,Extended Stay America - Houston - Katy Freeway - Energy Corridor
1,0,1160746,La Quinta Inn Houston Wirt Road
20,26,99013,Baymont Inn Houston Hobby Airport
1,0,107846,Montecito Apartment Suites
1,0,1146185,Value Place Conroe
6,4,226728,Interstate Motor Lodge
2,2,239859,Studio 6 Houston Northwest
10,8,98962,Holiday Inn Houston Near The Galleria
1,1,223178,Holiday Inn Express & Suites Houston North Intercontinental
2,4,98940,Houston Inn and Suites
4,4,107802,Econo Lodge
15,18,277895,Howard Johnson Clearlake
1,0,108136,Best Value Inn & Suites Houston
1,0,488773,Airport Inn And Suites
9,6,223156,Comfort Inn Houston
8,14,107903,Howard Johnson Express Inn - Houston
1,1,217745,Extended Stay America - Houston - Med. Ctr. - Reliant Pk. - Fannin St.
2,4,107769,Fairfield Inn & Suites Houston I-45 North
4,4,223135,Travelodge Houston - Intercontinental
3,1,122746,Londale Hotel
3,3,226721,Studio 6 Houston - Westchase
4,8,107713,Ramada Houston Southwest
6,6,142353,Econo Lodge Medical Center
6,1,266125,Hobby Inn and Suites
0,1,596446,Texan Inn & Suites
0,5,98976,Hotel Preet Northwest
2,1,223183,InTown Suites Houston Northwest / Cy-Fair (XHW) - Houston
2,4,223184,InTown Suites Highway 290
5,11,107757,Americas Best Value Inn & Suites - Bush Int'l Airport Wes
0,1,2340286,Southwest Inn
4,7,99051,Motel 6 Houston West - Katy
3,4,1382899,Value Place I-10 West
2,3,244313,Motel 6 Houston - Westchase
0,2,99098,Great Value Inn
0,1,277892,Budget Host Hempstead Inn
0,2,1164945,Hotel Preet Grand Conference Center
1,2,98937,Astro Inn
4,8,99031,America's Inn
11,5,73463,Downtowner Inn and Suites
1,4,1146238,Value Place Airtex
1,0,1147065,Value Place West Chase
5,19,98972,Ramada Inn North Houston
3,5,107999,Quality Inn & Suites West - Energy Corridor
4,5,239355,Super 8 Houston/I-10/Federal Road
2,3,239858,Studio 6 Houston-Hobby
4,26,98934,Josephine Motel
3,12,109734,Island Suites Hobby Airport
4,3,247110,InTown Suites I-45 North
1,3,99131,InTown Suites Houston West
1,0,257503,InTown Suites Highway 6
5,24,73470,Howard Johnson
1,10,240481,Houston-Days Inn Astrodome
1,5,239857,Holiday Inn Express Hotel & Suites Houston Energy Corridor-W Oaks
8,27,99024,Hawthorn Suites Houston Southwest
0,1,99045,Eagle Inn & Suites
3,1,244316,Dreamland Motel
23,12,292556,La Mirage Motel
17,21,107911,Downtowner Inn Houston
4,13,141902,Downtowner Inn
1,0,570195,Cullen Inn
3,13,108006,Crystal Suites
0,1,107743,Bridgestreet Murphys Camden Mid
12,6,244314,Best Classic Inn
10,10,141893,Bear Creek Inn
0,1,651629,Baron Inn
0,4,240435,Americas Best Value Platinum Inn & Suites
0,2,244196,Airport Hobby Palace Inn
2,2,254040,Scottish Inn and Suites
2,2,223194,Sago Motel
1,2,1751874,Rodeway Inn Southwest Freeway
1,1,240440,Regency Motel
2,2,107751,Ramels Drive in Motel
4,3,223138,Ramada Limited Suites
5,0,98970,Plainfield Inn Southwest
0,1,603138,Passport Inn Houston
4,0,558038,Parc Royale Apt Suites
0,1,108029,Palace Inn Houston Airport
1,2,217739,Palace Inn Houston
10,8,98981,Palace Inn Copperfield
0,1,98986,Ollie Motel
2,0,649739,Oakwood Verandah at Centerfield
1,0,239848,Oakwood at the Lodge on the Parkway
26,14,98936,Oakwood At Old Farm
2,0,223182,Oakwood at 2400 Fountainview
2,0,108151,Oakwood At Camden Vanderbilt
3,5,108047,New Six Inn and Suites Houston
6,6,223187,National Motels
5,0,107952,National at Marquis at Bellaire
2,2,252340,Mustang Inn and Suites Hobby Airport
3,2,653244,Moonlight Suites
2,0,1484167,Monsoon Inn
0,1,1224357,Luxury Inn
1,0,1858908,Lightning
6,8,99017,Lexus Inn
7,6,108145,Scottish Inn Hobby Airport
3,2,107768,Legacy Motel
1,0,570092,Lee's Inn Motel
8,3,223180,Knights Inn Houston
13,12,223175,Quality Inn & Suites Galleria/Westchase
7,3,503400,Quality Suites Bush/IAH Airport West
11,8,559409,Rodeway Inn & Suites Medical Center
15,16,240483,Champions Lodge
10,4,98955,Greenway Inn & Suites
1,0,631351,Super 8 Motel - Houston/I-10W@Hwy6
67,48,108066,Studio 6 Houston - Spring
1,2,99082,Venetian Inn & Suites Houston Airport
13,6,108060,Solaris Hotel and Resorts
4,2,223157,Scottish Inn & Suites Houston South
8,2,1138042,Scottish Inns & Suites-Jones Road
1,0,557401,Scottish Inns & Suites - I10 East
15,13,1577352,Scottish Inns & Suites East Tidwell
1,2,1971740,Scottish Inns Houston-Westcott St
9,5,244310,Scottish Inns Houston
17,19,223169,Americas Best Value Inn & Suites- Houston Airport North
3,4,99073,Studio 6 Houston West
17,16,99015,Budgetel Inn Houston
11,5,107812,Holiday Inn Express Houston - Hobby Airport
14,11,217741,Hotel 31 Houston Near the Galleria
3,2,240441,Days Inn West Houston
8,2,223140,Executive Lodging at 3000 Sage
8,8,107867,Quality Inn Houston
23,14,223136,Northgate Inn and Suites Houston
10,1,258875,Motel 6 Houston Reliant Park
8,6,223176,Hampton Inn & Suites
38,17,109748,Symphony Inn Houston
5,5,1526288,Red Carpet Inn Houston
9,2,239356,Preet Inn
9,4,223177,Moonlight Inn and Suites
0,1,2160816,Scottish Inn & Suites
19,15,240437,Executive Inn & Suites Houston
1,0,1889985,Passport Inn & Suites Houston
12,5,1583951,Knights Inn Houston Raceway/Bush Airport
12,4,2531544,Americas Best Value Classic Inn & Suites- Downtown
15,9,99014,Brentwood Inn
34,23,1724101,Scottish Inn & Suites Houston - Eastex Freeway
4,1,1485278,Regency Inn & Suites
5,7,107718,Houston Days Inn Downtown / Medical Center
17,4,109742,Wellesley Suites Memorial
9,5,116265,Holiday Inn Houston Southwest-Hwy 59S @ Beltway 8
21,12,107859,Hospitality Inn
15,4,1212489,Camelot Inn & Suites
5,1,1642905,Americas Best Value Inn & Suites-Houston North
65,35,98997,Courtyard by Marriott Houston Brookhollow
20,5,223172,InTown Suites Houston Intercontinental
8,1,108010,Econo Lodge Houston Lobby
12,7,107913,Rodeway Inn & Suites Hwy 290 NW
9,4,1146180,TownePlace Suites Houston Northwest
7,7,107994,Candlewood Suites Houston-At Citycentre-Energy Corridor
4,4,107993,Super 8 Houston /I-10 & 610
17,7,223150,Galleria Garden Hotel/Apartments
25,22,223192,Palace Inn Sam Houston Parkway North
1,0,3393901,La Quinta Woodlands Hotel
14,5,223144,Americas Best Value Inn & Suites-Houston/FM 249
19,7,257022,La Quinta Inn Houston East
17,5,223143,Hotel Marquis
5,1,124460,Comfort Inn & Suites Houston
16,6,98999,Scottish Inns & Suites Houston - Hwy 6 South
36,11,99104,Comfort Inn Hwy. 290/NW
63,15,268149,Red Roof Inn - Houston Northwest
2,0,1158744,BEST WESTERN PLUS Sam Houston Inn & Suites
32,8,1174691,Regency Suites Bush Airport
16,3,109751,Super 8 Houston / Brookhollow / NW
22,5,1416435,Baymont Inn & Suites Houston East
22,12,217746,Rodeway Inn Houston
85,50,257507,Crowne Plaza Hotel Houston- Medical Center
35,13,1549134,Super 8 Houston/I-45 North
37,15,107844,Candlewood Suites Houston/Clear Lake
76,22,98959,Holiday Inn Express Northwest / Brookhollow
7,0,73481,Candlewood Suites Houston West
34,11,223167,Braeswood Hotel & Convention Center
7,1,107957,Baymont Inn and Suites Houston I-45 North
24,6,107990,Grand Inn & Suites
38,10,108002,Motel 6 Houston Hobby Airport
12,0,223153,Microtel Inn & Suites by Wyndham Houston
6,0,1222237,Comfort Inn & Suites Greenway Plaza/SW Freeway
27,7,223165,La Quinta Inn Houston Cy-Fair
57,22,98996,BEST WESTERN Windsor Suites
12,6,223152,Red Roof Inn Houston IAH Airport
9,2,1733514,Red Carpet Inn Hobby Airport
29,26,98966,Comfort Suites
43,15,99120,Residence Inn Houston Westchase
27,20,107783,La Quinta Inn & Suites Houston Southwest
53,17,240439,Comfort Suites
22,11,123943,Residence Inn Intercontinental Airport at Greenspoint
9,4,107929,Residence Inn Houston Medical Center/Reliant Park
42,15,108142,Scottish Inns & Suites Timber
59,28,223139,Americas Best Value Inn & Suites Houston FM 1960/I-45
19,6,107947,Quality Inn & Suites Reliant Park/Medical Center
64,17,223159,Woodland Inn & Suites
45,13,1236696,Country Inn & Suites Houston Hobby Airport
124,39,98954,Palace Inn and Suites - Willowbrook
12,4,107711,Comfort Suites West Energy Corridor
29,8,268145,Super 8 Houston I-45
38,27,223142,Days Inn Houston
13,5,1197126,Howard Johnson Houston
15,3,223171,Quality Inn & Suites North
132,43,99103,America's Inn
10,3,107776,Hampton Inn Houston Northwest
17,7,223155,Best Western Plus - North Houston Inn & Suites
68,17,124937,Comfort Suites - Near the Galleria
17,1,1645644,Candlewood Suites Houston Medical Center
199,63,98944,Scotts Inn & Suite
14,2,674319,Hilton Houston Southwest
21,6,223166,Red Roof Inn Houston West
33,4,1649109,Comfort Inn East
9,4,657890,Extended Stay America - Houston - Galleria - Westheimer
4,0,217744,Days Inn Houston
38,18,223193,Crossland Economy Studios - Houston - Northwest
50,20,99066,Crossland Economy Studios - Houston - West Oaks
23,8,223228,"Hampton Inn Houston - I-10W, Energy Cor"
44,10,1103488,Extended Stay America - Houston - Med. Ctr. - Reliant Pk. - Braeswood Blvd.
47,9,878451,Hilton Garden Inn Houston NW America Plaza
12,2,107908,Courtyard by Marriott Houston Northwest
114,41,98943,BEST WESTERN Fountainview Inn & Suites Near Galleria
111,33,98991,Courtyard Houston Intercontinental Airport
46,13,1657341,Comfort Suites Willowbrook / Technology Corridor
12,4,107954,Courtyard Houston I-10 West/Energy Corridor
16,1,223147,Hyatt North Houston
33,7,223189,Courtyard by Marriott Houston Downtown
9,5,108004,Candlewoods Suites Medical Center
31,8,223134,Aloft Houston by the Galleria
128,31,99007,Hampton Inn - Brookhollow
5,0,1556786,TownePlace Suites Houston Intercontinental Airport
195,42,99010,Extended Stay America - Houston - Galleria - Uptown
26,5,108061,Four Points by Sheraton Houston Southwest
111,31,99058,Houston Marriott South at Hobby Airport
38,9,288460,Residence Inn Houston by The Galleria
170,70,99135,Holiday Inn Houston Reliant Park Area
24,8,1575212,Holiday Inn Express - Houston
93,28,107826,Hotel Derek Houston Galleria
7,3,645215,TownePlace Suites Central/Northwest Freeway
9,0,1863251,Extended Stay America - Houston - Greenway Plaza
19,5,107982,HYATT house Houston/Energy Corridor
235,85,99006,Hampton Inn & Suites Houston-Cypress Station
22,6,671200,La Quinta Baytown Hotel
9,2,1440365,Homewood Suites by Hilton Houston - Westchase
124,32,98956,Hilton Houston Plaza/Medical Center
29,7,277894,Hampton Inn Houston - Willowbrook Mall
32,7,220094,Candlewood Suites Houston IAH / Beltway 8
9,2,107986,Wyndham Houston West Energy Corridor
90,24,99110,BEST WESTERN Plaza Hotel & Suites at Medical Center Houston
57,8,226753,Comfort Suites Bush Intercontinental Airport
59,26,107856,Hilton Garden Inn Houston / Bush Intercontinental Airport
11,1,609502,Days Inn Houston - Galleria Mall
119,25,99116,Candlewood Suites Houston Westchase
124,35,286987,John F. Kennedy Inn and Suites
23,2,1026192,HYATT house Houston/Galleria
32,1,107991,La Quinta Inn & Suites Houston West Park 10
16,2,812523,Holiday Inn Express Houston-Downtown Convention Center
45,6,293234,Super 8 IAH West / Greenspoint
50,9,268151,DoubleTree Suites by Hilton Houston by the Galleria
46,10,286988,Extended Stay America - Houston - Willowbrook - HWY 249
12,2,1237172,Holiday Inn Express Houston - Memorial Park Area
116,39,525232,Country Inn & Suites Intercontinental Airport
20,4,239865,Holiday Inn Express Hotel & Suites Houston West-Energy Corridor
43,10,223173,Super 8 Houston
32,1,1478311,Sheraton Suites Houston Near The Galleria
7,0,1724007,Quality Suites North
391,57,641273,La Quinta Inn & Suites Willowbrook
74,12,608401,La Quinta Inn Houston Greenway Plaza
48,12,631349,Fairfield Inn & Suites Houston Intercontinental Airport
7,0,1846923,Hilton Houston Post Oak
99,17,570279,Comfort Suites
144,38,99137,Homewood Suites by Hilton Houston - Willowbrook Mall
35,7,266145,Houston Marriott Energy Corridor
29,4,1852890,Homewood Suites by Hilton Houston West-Energy Corridor
28,4,1100784,Extended Stay America - Houston - Willowbrook
70,15,223227,Wingate by Wyndham Houston / Willowbrook
97,26,223145,Springhill Suites Houston Medical Center/Reliant Park
15,4,530458,Holiday Inn Express Houston-NW (Highway 290 and FM 1960)
47,3,622987,Sheraton Houston West
37,3,518371,MainStay Suites Texas Medical Center/Reliant Park
181,34,596013,Fairfield Inn Houston / Westchase
23,5,1511925,Doubletree Hotel Houston Downtown
126,24,99055,Houston Marriott Medical Center
56,11,1879027,Courtyard Houston Medical Center
160,35,219703,TownePlace Suites Houston I-10 West/Energy Corridor
16,1,223146,Fairfield Inn & Suites Houston I-10 West / Energy Corridor
128,26,99054,Crestwood Suites Houston 290-Galleria
227,25,1015206,Soho House New York
7,0,3191802,Millenium Hilton
194,31,107836,Holiday Inn Express New York City Times Square
168,12,578694,Club Quarters World Trade Center
139,22,615260,Blue Moon Hotel
219,18,99109,Broadway at Times Square Hotel
132,15,247108,414 Hotel
111,21,108141,Hilton New York Fashion District
108,12,1205162,Dream Downtown
1339,204,266157,The Belvedere
125,12,1573321,"The Standard, East Village"
104,8,1438752,Park South Hotel
506,64,98979,Affinia Manhattan
125,17,1862847,Marmara Manhattan Hotel
43,5,3236579,The Wall Street Inn
116,9,73445,Chelsea Lodge
